title,merchant,price,soldNum,stock,imageUrl
卡通動漫寶可夢皮卡丘手機殼 蘋果11promax 華碩 華為vivo小米oppo三星 糖果 索尼HTC比卡丘,70.0,台中市龍井區,0,https://shopee.tw/卡通動漫寶可夢皮卡丘手機殼 蘋果11promax 華碩 華為vivo小米oppo三星 糖果 索尼HTC比卡丘防摔手機殼-i.83929280.3310568029,https://cf.shopee.tw/file/7723e77d07483aed1737ba9ee397ebf5_tn
獨角獸連體睡衣動物卡通家居服皮卡丘龍貓老虎熊貓長頸鹿大象豬史迪仔萬聖節聖誕節新年扮演服男女成人Kigurum,179.0,海外,23,https://shopee.tw/獨角獸連體睡衣動物卡通家居服皮卡丘龍貓老虎熊貓長頸鹿大象豬史迪仔萬聖節聖誕節新年扮演服男女成人Kigurumi連帽服裝-i.130081783.4603443810,https://cf.shopee.tw/file/72cd5a2d9ba5d4336340b1e5f08a4012_tn
【現貨在台~四件免運】卡通睡衣 動物睡衣 cosplay角色扮演服造型睡衣 皮卡丘恐龍史迪奇睡衣卡通連身睡,99.0,高雄市楠梓區,3806,https://shopee.tw/【現貨在台~四件免運】卡通睡衣 動物睡衣 cosplay角色扮演服造型睡衣 皮卡丘恐龍史迪奇睡衣卡通連身睡衣 表演服-i.54056174.1634072008,https://cf.shopee.tw/file/eb332879837646f2e4205817bb4e5038_tn
現貨👍立即發貨 神奇寶貝公仔 寶可夢公仔 小玩偶 皮卡丘公仔 超夢 卡比獸 伊布 神獸 娃娃機公仔 1代 2,4.0,高雄市新興區,6589,https://shopee.tw/現貨👍立即發貨 神奇寶貝公仔 寶可夢公仔 小玩偶 皮卡丘公仔 超夢 卡比獸 伊布 神獸 娃娃機公仔 1代 2代 3代表-i.85350674.2793823874,https://cf.shopee.tw/file/248e95084b0f8f7c013a7bda802ed308_tn
【一件免運】卡通動物睡衣 法蘭絨睡衣 連身睡衣 恐龍睡衣 情侶裝 連體睡衣 史迪奇 皮卡丘 親子款 Cospl,78.0,海外,3113,https://shopee.tw/【一件免運】卡通動物睡衣 法蘭絨睡衣 連身睡衣 恐龍睡衣 情侶裝 連體睡衣 史迪奇 皮卡丘 親子款 Cosplay連身衣-i.81214315.1560528682,https://cf.shopee.tw/file/2f91285c703bfdfecf668527fa5ebe02_tn
皮卡丘 大偵探皮卡丘超大防水鎖邊游戲辦公通用滑鼠墊鍵                        ,309.0,海外,0,https://shopee.tw/皮卡丘 大偵探皮卡丘超大防水鎖邊游戲辦公通用滑鼠墊鍵盤防滑桌墊-i.201831913.5909298810,https://cf.shopee.tw/file/2f650113033c1032a65a4a34db5648a8_tn
⭐️買10送2⭐️不重復 ⚠️特價 購120隻送24隻 口袋妖怪 神奇寶貝 皮卡丘 公仔玩偶 寵物小精,3.0,,12617,https://shopee.tw/⭐️買10送2⭐️不重復 ⚠️特價 購120隻送24隻 口袋妖怪 神奇寶貝 皮卡丘 公仔玩偶 寵物小精靈 寶可夢-i.170153227.2723654562,https://cf.shopee.tw/file/6526bdda99bad0d3022f752c1015045a_tn
日本迪士尼 iPhone 充電頭保護套 咬咬豆腐頭 玩具總動員 充電線保護套 蠟筆小新 史迪奇 皮卡丘 傳輸線,39.0,海外,2433,https://shopee.tw/日本迪士尼 iPhone 充電頭保護套 咬咬豆腐頭 玩具總動員 充電線保護套 蠟筆小新 史迪奇 皮卡丘 傳輸線套 咬豆腐-i.90365411.2612754205,https://cf.shopee.tw/file/09932ddabfac997163b13b5432bf9b52_tn
現貨神奇寶貝|公仔|中型|小型|寶可夢|皮卡丘|聖誕禮物|精靈球100入中號神奇寶貝公仔 144入小號神,3.0,海外,9500,https://shopee.tw/現貨神奇寶貝|公仔|中型|小型|寶可夢|皮卡丘|聖誕禮物|精靈球100入中號神奇寶貝公仔 144入小號神奇寶貝公仔-i.30991249.1336402548,https://cf.shopee.tw/file/75939fa688ff82fdcc81e41cccb98887_tn
【現貨】ins可愛史努比創意潮牌Airpods Pro 3代 耳機保護套個性恐龍皮卡丘硅膠軟ins潮流蘋果無線,135.0,,1,https://shopee.tw/【現貨】ins可愛史努比創意潮牌Airpods Pro 3代 耳機保護套個性恐龍皮卡丘硅膠軟ins潮流蘋果無線藍牙耳機套-i.140179893.5710394889,https://cf.shopee.tw/file/c332b50971b71eb7f94af3ad6e332567_tn
✨LGKAR✨日本皮卡丘蜘蛛人塑料波浪尺子畫圖直尺15cm 學生文                 ,6.0,,1135,https://shopee.tw/✨LGKAR✨日本皮卡丘蜘蛛人塑料波浪尺子畫圖直尺15cm 學生文具獎品用品-i.137309297.2305853075,https://cf.shopee.tw/file/44cdf2e9984e6a480f93f7b6c9c382e3_tn
內褲現貨賣場四❤️男寶三角褲❤️高質感盒裝五件組 出口韓國兒童內褲純棉三角內褲鋼鐵人波力恐龍寶   ,30.0,台中市北屯區,398,https://shopee.tw/內褲現貨賣場四❤️男寶三角褲❤️高質感盒裝五件組 出口韓國兒童內褲純棉三角內褲鋼鐵人波力恐龍寶可夢皮卡丘-i.3189160.2788837650,https://cf.shopee.tw/file/8338855170c4cbfde602658072dc050d_tn
[switch lite]創念設計 皮卡丘主題 主機收納包 送類比套 主機支架 鋼化膜 手帶    ,350.0,台南市歸仁區,499,https://shopee.tw/[switch lite]創念設計 皮卡丘主題 主機收納包 送類比套 主機支架 鋼化膜 手帶 買一送四!-i.1010472.2842079853,https://cf.shopee.tw/file/6f90a503a467d9219dbea8698d644e72_tn
🔴鹹魚吃蛋糕-平面皮卡丘▶急單和下標前先聊聊、全省宅配、造型蛋糕、相片蛋糕、創意蛋糕、台中造型蛋糕 ,750.0,台中市太平區,7,https://shopee.tw/🔴鹹魚吃蛋糕-平面皮卡丘▶急單和下標前先聊聊、全省宅配、造型蛋糕、相片蛋糕、創意蛋糕、台中造型蛋糕、生日蛋糕-i.26006115.919014409,https://cf.shopee.tw/file/84c066ae27a91bf37aa3a8c36fe4a693_tn
✨LGKAR✨日本卡通精靈寶可夢原子筆 可愛口袋寵物精靈皮卡丘扁頭中性筆學生            ,9.0,,462,https://shopee.tw/✨LGKAR✨日本卡通精靈寶可夢原子筆 可愛口袋寵物精靈皮卡丘扁頭中性筆學生黑獎品禮物-i.137309297.2635635668,https://cf.shopee.tw/file/0d64a8fd43fe43cfb06a054edd937fa9_tn
正版品牌👍多款可選精靈寶可夢神奇寶貝皮卡丘寵物小精靈手辦噴火龍變形GK公仔兒童玩          ,198.0,,328,https://shopee.tw/正版品牌👍多款可選精靈寶可夢神奇寶貝皮卡丘寵物小精靈手辦噴火龍變形GK公仔兒童玩具聖誕禮物-i.174228369.7300088779,https://cf.shopee.tw/file/8fe539aa966edfcfcc99bcb24c5b4d4a_tn
當天出貨【一中積木】神奇寶貝 皮卡丘 卡比獸 噴火龍 妙花蛙快龍 成龍 水精靈 微型樂高創意鑽石積木 LEG,49.0,台中市北區,1426,https://shopee.tw/當天出貨【一中積木】神奇寶貝 皮卡丘 卡比獸 噴火龍 妙花蛙快龍 成龍 水精靈 微型樂高創意鑽石積木 LEGO現貨批發-i.5690337.1211082182,https://cf.shopee.tw/file/b25992cc7d3f4122d527e9befaedec3c_tn
❤❤❤兒童玩具可愛公仔皮卡丘男女寶寶公仔舒適親膚布娃娃毛絨玩具網紅爆款兒童玩偶呆萌公仔小孩子生日禮 ,269.0,,4,https://shopee.tw/❤❤❤兒童玩具可愛公仔皮卡丘男女寶寶公仔舒適親膚布娃娃毛絨玩具網紅爆款兒童玩偶呆萌公仔小孩子生日禮物現貨玩偶-i.187101251.4003655619,https://cf.shopee.tw/file/6c1457e5dd7501879db95040b4defde6_tn
電動跳舞鋼鐵人、大黄蜂、美國隊長、蜘蛛人、皮卡丘、吃雞隊長、冰雪公主、特技三輪網紅同款會跳舞的機器人唱歌兒童小,99.0,,1937,https://shopee.tw/電動跳舞鋼鐵人、大黄蜂、美國隊長、蜘蛛人、皮卡丘、吃雞隊長、冰雪公主、特技三輪網紅同款會跳舞的機器人唱歌兒童小豬玩具男孩-i.146882456.2568368919,https://cf.shopee.tw/file/13427257f6ca966853bf6ba33ad040cd_tn
【MamenVape】🔥正品 三重芒果 鹽 廚師佳釀 皮卡丘 定制款 公仔水杯套 水杯高3     ,370.0,桃園市大園區,525,https://shopee.tw/【MamenVape】🔥正品 三重芒果 鹽 廚師佳釀 皮卡丘 定制款 公仔水杯套 水杯高30/長35-i.172183389.2767635906,https://cf.shopee.tw/file/2e47af77f2b35521e821b1f8638373fe_tn
蠟筆小新 連帽U型枕 連帽頸枕 頸枕 連帽頸枕 皮卡丘 卡比獸 肥嘟嘟佐衛門 小白 動感超人小新 櫻桃小丸子大,176.0,海外,563,https://shopee.tw/蠟筆小新 連帽U型枕 連帽頸枕 頸枕 連帽頸枕 皮卡丘 卡比獸 肥嘟嘟佐衛門 小白 動感超人小新 櫻桃小丸子大笑微笑鄙視-i.85618516.2478806375,https://cf.shopee.tw/file/9040b4b9a1d12b525426e71916e402dd_tn
現貨*免運費 睡衣 蠟筆小新 皮卡丘睡衣 粉紅豬卡通睡衣 珊瑚絨女生【送收納袋】長袖套頭上衣長褲秋冬保暖 三件,348.0,,3,https://shopee.tw/現貨*免運費 睡衣 蠟筆小新 皮卡丘睡衣 粉紅豬卡通睡衣 珊瑚絨女生【送收納袋】長袖套頭上衣長褲秋冬保暖 三件套裝居家服-i.170542254.4510488794,https://cf.shopee.tw/file/593c3244ee7ad13efa26f65db077df6a_tn
一件免運 卡通造型睡衣 法蘭絨睡衣 玩偶裝 絨毛裝動物裝 如廁版 居家服 情侶款 皮卡丘 史迪奇 奶牛 龍貓 ,99.0,海外,940,https://shopee.tw/一件免運 卡通造型睡衣 法蘭絨睡衣 玩偶裝 絨毛裝動物裝 如廁版 居家服 情侶款 皮卡丘 史迪奇 奶牛 龍貓 恐龍 毛怪-i.45182477.1245092195,https://cf.shopee.tw/file/5194ec27f9a7f1655fd90f4bbb8fa55d_tn
★sports  shop★✖✺長袖T恤 男連帽衛衣 情侶皮卡丘寬松韓版 套頭帽T 大學T 長袖  ,157.0,,206,https://shopee.tw/★sports  shop★✖✺長袖T恤 男連帽衛衣 情侶皮卡丘寬松韓版 套頭帽T 大學T 長袖T 連帽T-i.183413461.6305206877,https://cf.shopee.tw/file/d87af487319978184c7200a79057b057_tn
限時特價 批發 神奇寶貝球 皮卡丘 寶可夢 精靈球 超級球 高級球 可夢 超夢 娃娃機專用 娃娃機 神奇,15.0,,3578,https://shopee.tw/限時特價 批發 神奇寶貝球 皮卡丘 寶可夢 精靈球 超級球 高級球 可夢 超夢 娃娃機專用 娃娃機 神奇寶貝 玩具-i.134166605.2268197734,https://cf.shopee.tw/file/3a39c0475595d34b84c05cd6651dc9d8_tn
台灣現貨✥❖♗黑白色情侶皮卡丘連帽衛衣秋冬季薄款韓版寬松潮流男女                  ,315.0,,67,https://shopee.tw/台灣現貨✥❖♗黑白色情侶皮卡丘連帽衛衣秋冬季薄款韓版寬松潮流男女學生長袖冬-i.168239167.2848320891,https://cf.shopee.tw/file/3248b469d2359b8526fb7cb52e5ce077_tn
麥斯塔 文具 現貨 橡皮擦 文具组 皮卡丘 神奇寶貝 寶可夢 學習 小學生 可愛橡皮擦 卡通橡皮擦 精靈寶可,6.0,海外,1451,https://shopee.tw/麥斯塔 文具 現貨 橡皮擦 文具组 皮卡丘 神奇寶貝 寶可夢 學習 小學生 可愛橡皮擦 卡通橡皮擦 精靈寶可夢 橡皮擦-i.49231911.2305902208,https://cf.shopee.tw/file/eba70b8b278c48dad9c08240ed223618_tn
日本迪士尼 iPhone 充電頭保護套 咬咬豆腐頭 熊抱哥 三眼怪 毛怪 史迪奇 玩具總動員 皮卡丘 傳輸線,39.0,海外,567,https://shopee.tw/日本迪士尼 iPhone 充電頭保護套 咬咬豆腐頭 熊抱哥 三眼怪 毛怪 史迪奇 玩具總動員 皮卡丘 傳輸線套 咬豆腐-i.131918488.2845140047,https://cf.shopee.tw/file/c249541c1acf0a1c51cd539b1d32f001_tn
日韩小屋 創意文具可愛卡通 皮卡丘橡皮擦 3D立體造型橡皮擦 學                  ,3.0,海外,392,https://shopee.tw/日韩小屋 創意文具可愛卡通 皮卡丘橡皮擦 3D立體造型橡皮擦 學生涂擦文具-i.131439278.5303871059,https://cf.shopee.tw/file/813e422181639cb31c8d69c5011bd7ea_tn
聖誕節⭐現貨⭐皮卡丘周邊男生創意擺件小精靈寵物小精靈                        ,387.0,,0,https://shopee.tw/聖誕節⭐現貨⭐皮卡丘周邊男生創意擺件小精靈寵物小精靈客製化禮物-i.187165992.3119344425,https://cf.shopee.tw/file/c7eda765f41781b5d6f94b7f88210f9c_tn
實拍【現貨】26款可選 ins風通用 卡通硅膠 皮卡丘 手機支架 可繞線、折疊、拉升、水洗、彎曲、抖音自拍神器,48.0,海外,395,https://shopee.tw/實拍【現貨】26款可選 ins風通用 卡通硅膠 皮卡丘 手機支架 可繞線、折疊、拉升、水洗、彎曲、抖音自拍神器 膠可水洗-i.46250536.2801973579,https://cf.shopee.tw/file/9a0ee3907060c99f5d2852ce82806c95_tn
現貨神奇寶貝|公仔|中型|小型|寶可夢|皮卡丘|聖誕禮物|144入小號神奇寶貝公仔 精靈球100入中號神,3.0,海外,1259,https://shopee.tw/現貨神奇寶貝|公仔|中型|小型|寶可夢|皮卡丘|聖誕禮物|144入小號神奇寶貝公仔 精靈球100入中號神奇寶貝公仔-i.79542376.2871952545,https://cf.shopee.tw/file/43fdc8b1a97c9c934e1439db1aa092d5_tn
超多款卡通造型橡皮擦，皮卡丘湯瑪士，佩                               ,8.0,台中市東區,710,https://shopee.tw/超多款卡通造型橡皮擦，皮卡丘湯瑪士，佩佩豬，恐龍-i.14351415.2211496499,https://cf.shopee.tw/file/f628c9be76dfa326548c533d4beb289a_tn
【小小兵】gogoro 動物車燈皮卡丘 河馬 小黃雞 單眼黃人 小黃鴨車燈破風鴨頭         ,30.0,海外,68,https://shopee.tw/【小小兵】gogoro 動物車燈皮卡丘 河馬 小黃雞 單眼黃人 小黃鴨車燈破風鴨頭盔鴨平衡車-i.62677144.2716422663,https://cf.shopee.tw/file/59976dc6c00164b4766d09587fc98473_tn
雙12優惠 NS 寶可夢 劍 盾 亞版 中文版 任天堂 Nintendo Switch Pokemon 皮,999.0,新北市中和區,273,https://shopee.tw/雙12優惠 NS 寶可夢 劍 盾 亞版 中文版 任天堂 Nintendo Switch Pokemon 皮卡丘 伊布-i.2743774.2114375808,https://cf.shopee.tw/file/d6381e8ff1f8cf683a9d2fe9fbc33744_tn
【現貨+預購~四件免運】皮卡丘恐龍史迪奇兒童睡衣 兒童卡通睡衣 兒童動物連身睡衣 道具服 兒童表演服角色扮,99.0,高雄市楠梓區,389,https://shopee.tw/【現貨+預購~四件免運】皮卡丘恐龍史迪奇兒童睡衣 兒童卡通睡衣 兒童動物連身睡衣 道具服 兒童表演服角色扮演服如廁版-i.54056174.1692851684,https://cf.shopee.tw/file/e7d09f735d20bd9eba144a427162675f_tn
🍍鳳梨積木{挑戰最低價}{整套送好禮}-神奇寶貝球積木/寶可夢球積木/皮卡丘/乘龍/可達鴨/小火龍/卡拉,3.0,台北市中正區,295,https://shopee.tw/🍍鳳梨積木{挑戰最低價}{整套送好禮}-神奇寶貝球積木/寶可夢球積木/皮卡丘/乘龍/可達鴨/小火龍/卡拉/鑽石積木-i.4690034.5600970489,https://cf.shopee.tw/file/ebc072997cfbf21f6cd695bfdb718638_tn
神奇寶貝~皮卡丘娃娃~小火龍~傑尼龜~卡比獸~妙蛙種子~伊布~可達鴨~皮丘~胖丁~正版授權~神奇寶貝娃娃~寶,85.0,高雄市林園區,606,https://shopee.tw/神奇寶貝~皮卡丘娃娃~小火龍~傑尼龜~卡比獸~妙蛙種子~伊布~可達鴨~皮丘~胖丁~正版授權~神奇寶貝娃娃~寶可夢~玩偶-i.10277315.84769293,https://cf.shopee.tw/file/fdadf2313ee0b53cfd3b08857ad1240c_tn
台灣賣家 寶可夢 搖步器 搖步機 刷步器 計步器 神奇寶貝 皮卡丘 搖步器 遙步 刷步神器 搖擺器 自動搖步器,25.0,彰化縣彰化市,3312,https://shopee.tw/台灣賣家 寶可夢 搖步器 搖步機 刷步器 計步器 神奇寶貝 皮卡丘 搖步器 遙步 刷步神器 搖擺器 自動搖步器 口袋裡的-i.10284025.1758427400,https://cf.shopee.tw/file/1956f4f83b2853d430df3dda6a1fad61_tn
【熱銷】卡通家居服動物睡衣  連身睡衣   動物裝 法蘭絨睡衣   情侶裝  史迪奇皮卡丘親子裝 套裝Cosp,263.0,海外,214,https://shopee.tw/【熱銷】卡通家居服動物睡衣  連身睡衣   動物裝 法蘭絨睡衣   情侶裝  史迪奇皮卡丘親子裝 套裝Cosplay服裝-i.121474311.2082671839,https://cf.shopee.tw/file/b2151b2da1b5f2fa00b10c8cfbb355d5_tn
🌷WINNI🌷現貨 安全帶護套 卡通 安全帶套 米奇米妮蜘蛛人史迪奇卡赫那拉蛋黃哥皮卡丘拉拉熊維尼毛怪大眼,155.0,新北市中和區,1987,https://shopee.tw/🌷WINNI🌷現貨 安全帶護套 卡通 安全帶套 米奇米妮蜘蛛人史迪奇卡赫那拉蛋黃哥皮卡丘拉拉熊維尼毛怪大眼蝙蝠俠熊大-i.28227842.1294602069,https://cf.shopee.tw/file/042125fd85f4d786d2d4b5d315b305b4_tn
【免運】2019新款現貨帆布鞋男高幫皮卡丘聯名動漫鞋子秋季新款韓版百搭塗鴉手            ,299.0,,4,https://shopee.tw/【免運】2019新款現貨帆布鞋男高幫皮卡丘聯名動漫鞋子秋季新款韓版百搭塗鴉手繪板鞋aj-i.140829531.4702242031,https://cf.shopee.tw/file/47cb5e0e152834ef16309e27f65d8252_tn
【MamenVape】🔥正品 ARCTIC SALT北極鹽 皮卡丘 定制款 公仔水杯套 水杯高3  ,340.0,桃園市大園區,616,https://shopee.tw/【MamenVape】🔥正品 ARCTIC SALT北極鹽 皮卡丘 定制款 公仔水杯套 水杯高30/長35-i.172183389.2766688024,https://cf.shopee.tw/file/6a6b88766d2eca888372b03ddef3db77_tn
【海鯊優品】創意3D橡皮擦 可愛卡通皮卡丘橡皮 小學                        ,4.0,,767,https://shopee.tw/【海鯊優品】創意3D橡皮擦 可愛卡通皮卡丘橡皮 小學生獎品文具-i.163629244.2669373069,https://cf.shopee.tw/file/a7c1b15b1bf2ef39727db44d2c6aea4b_tn
現貨抖音同款 帽子 捏耳朵會動的兔子帽網紅搞怪會發光耳朵會動氣囊帽皮卡丘史迪仔LE         ,48.0,海外,213,https://shopee.tw/現貨抖音同款 帽子 捏耳朵會動的兔子帽網紅搞怪會發光耳朵會動氣囊帽皮卡丘史迪仔LED帽子禮物-i.98747687.2289813280,https://cf.shopee.tw/file/7a9460766fbe49e61f00aa670a9ef0ee_tn
大偵探 皮卡丘 手機殼【多種機型皆可】iPhone OPPO 三星 華為 vivo 小米紅米 Sony HTC,161.0,台中市北區,102,https://shopee.tw/大偵探 皮卡丘 手機殼【多種機型皆可】iPhone OPPO 三星 華為 vivo 小米紅米 Sony HTC ASUS-i.27638107.2243366293,https://cf.shopee.tw/file/0830f9d73b257d1f3c0d73ec98445c61_tn
✨皮卡丘睡袍❤現貨 快速出貨 浴袍 居家服睡衣 秋冬季睡袍女法蘭絨浴袍睡衣加厚米妮款情侶浴衣珊瑚絨家,299.0,海外,162,https://shopee.tw/✨皮卡丘睡袍❤現貨 快速出貨 浴袍 居家服睡衣 秋冬季睡袍女法蘭絨浴袍睡衣加厚米妮款情侶浴衣珊瑚絨家居服女浴衣-i.75434282.2710282439,https://cf.shopee.tw/file/be622e5cde9833198f5cf330112e864d_tn
充電線保護套 卡通 咬線器 數據線 傳輸線 保護頭 蘋果 安卓 防斷 防裂 七龍珠 海賊王 路飛 皮卡丘,35.0,海外,348,https://shopee.tw/充電線保護套 卡通 咬線器 數據線 傳輸線 保護頭 蘋果 安卓 防斷 防裂 七龍珠 海賊王 路飛 皮卡丘 蠟筆小新-i.48127799.2378346044,https://cf.shopee.tw/file/94e470ee1382bfad462b02674dd52ed9_tn
⭐《可刻字》3D小夜燈 立體LED檯燈 海賊王 小丸子 喬巴 史迪奇 龍貓 史奴比 皮卡丘 凱蒂貓 情人生日聖,82.0,嘉義市西區,1743,https://shopee.tw/⭐《可刻字》3D小夜燈 立體LED檯燈 海賊王 小丸子 喬巴 史迪奇 龍貓 史奴比 皮卡丘 凱蒂貓 情人生日聖誕交換禮物-i.5664581.372065284,https://cf.shopee.tw/file/4e2fa0372aab4c8f6dd927dde9606204_tn
"皮卡丘手機殼iPhone ASUS 三星 OPPO vivo HTC 糖果 華為 諾基亞,等多款手 ",66.0,,29,"https://shopee.tw/皮卡丘手機殼iPhone ASUS 三星 OPPO vivo HTC 糖果 華為 諾基亞,等多款手機型號可用-i.156178714.2596818526",https://cf.shopee.tw/file/77bbba9177817f2682f44a86995b1759_tn
【免運】32款動漫鑰匙套 2個裝鑰匙扣 史努比 角落生物 卡娜赫拉 蛋黃哥 皮卡丘 米奇 布朗熊 可妮兔 維,37.0,,211,https://shopee.tw/【免運】32款動漫鑰匙套 2個裝鑰匙扣 史努比 角落生物 卡娜赫拉 蛋黃哥 皮卡丘 米奇 布朗熊 可妮兔 維尼 美樂蒂-i.154811890.2873078942,https://cf.shopee.tw/file/6d8720037f011ff22b21c84836789b5f_tn
【小肥龍】 保證正版 PTCG 皮卡丘 噴火龍 基拉祈 英文版 日文版 中文 寶可夢 卡片 POKEMON ,2.0,,1570,https://shopee.tw/【小肥龍】 保證正版 PTCG 皮卡丘 噴火龍 基拉祈 英文版 日文版 中文 寶可夢 卡片 POKEMON 神奇寶貝卡-i.166402045.2817578613,https://cf.shopee.tw/file/b4332e654fccb53c5174e1c5595ffb16_tn
東鳩六角盒裝餅乾（皮卡丘、哆啦A                                  ,50.0,台中市豐原區,740,https://shopee.tw/東鳩六角盒裝餅乾（皮卡丘、哆啦A夢、小新）-i.1693039.2227841610,https://cf.shopee.tw/file/24754160c8156c6cecffdd75e0907169_tn
防摔空壓殼 寶可夢 iphone 11 XsMAX 蘋果XR I8 I7 7Plus 8Plus 皮卡丘 情侶,78.0,,0,https://shopee.tw/防摔空壓殼 寶可夢 iphone 11 XsMAX 蘋果XR I8 I7 7Plus 8Plus 皮卡丘 情侶全包保護殼-i.136257452.4910606042,https://cf.shopee.tw/file/46bcbf7663d9aa8d8d23a0875210c87f_tn
皮卡丘手工餅乾/寶可夢手工餅乾/派對點心/可達鴨/妙蛙種子/傑尼龜/胖               ,10.0,台中市西屯區,1247,https://shopee.tw/皮卡丘手工餅乾/寶可夢手工餅乾/派對點心/可達鴨/妙蛙種子/傑尼龜/胖丁/寶貝球-i.7524151.810599570,https://cf.shopee.tw/file/ba2d8caf0967c6e7f3e86d7ed73f732b_tn
神奇寶貝中心限定 與皮卡丘一起冒險 共6款  神奇寶貝 精靈寶可夢 精靈球 生態球 皮卡丘 夢幻 扭蛋 ,40.0,新北市永和區,212,https://shopee.tw/神奇寶貝中心限定 與皮卡丘一起冒險 共6款  神奇寶貝 精靈寶可夢 精靈球 生態球 皮卡丘 夢幻 扭蛋 盒玩 公仔-i.11557133.2408286833,https://cf.shopee.tw/file/43e61fc24be06c3bb8cc5b12a2e7f50e_tn
現貨 立體公仔髮圈 麵包超人美樂蒂布丁狗KT貓龍貓皮                        ,24.0,台中市北屯區,402,https://shopee.tw/現貨 立體公仔髮圈 麵包超人美樂蒂布丁狗KT貓龍貓皮卡丘佩佩豬-i.3189160.2089989910,https://cf.shopee.tw/file/f76cc891fb50cc5e9ef39af4a5b443a0_tn
💞正版保證💞Converse 神奇寶貝 皮卡丘 鴛鴦 高筒 帆布鞋 匡威休閒 板鞋 男鞋 女鞋 情 ,1580.0,桃園市大園區,2,https://shopee.tw/💞正版保證💞Converse 神奇寶貝 皮卡丘 鴛鴦 高筒 帆布鞋 匡威休閒 板鞋 男鞋 女鞋 情侶鞋 新款-i.153176059.2323437862,https://cf.shopee.tw/file/fa18dac1ad1b3ffc5d80a0be813b4498_tn
【一中積木】串聯積木 史迪奇 頑皮豹 皮卡丘 哆啦A夢 小小兵 KT 拉拉熊 米奇 米妮 英雄 毛怪 魯夫 喬,80.0,台中市北區,264,https://shopee.tw/【一中積木】串聯積木 史迪奇 頑皮豹 皮卡丘 哆啦A夢 小小兵 KT 拉拉熊 米奇 米妮 英雄 毛怪 魯夫 喬巴 鋼鐵人-i.5690337.2338304832,https://cf.shopee.tw/file/11a996e70d25728aae61f27b459dac0e_tn
現貨套裝 微型積木口袋妖怪 寶可夢 拼裝玩具 神奇寶貝 微型樂高 益智 積木 LEGO 小顆    ,32.0,海外,1134,https://shopee.tw/現貨套裝 微型積木口袋妖怪 寶可夢 拼裝玩具 神奇寶貝 微型樂高 益智 積木 LEGO 小顆粒 皮卡丘-i.117319495.2116066053,https://cf.shopee.tw/file/7f313ae035b29f2ac7e48c730aafa010_tn
【現貨】兒童3D卡通投影電子手錶24個圖案/可看時間日期/佩佩豬 冰雪奇緣 閃電麥坤 汪汪隊 小叮 ,66.0,桃園市蘆竹區,400,https://shopee.tw/【現貨】兒童3D卡通投影電子手錶24個圖案/可看時間日期/佩佩豬 冰雪奇緣 閃電麥坤 汪汪隊 小叮噹 皮卡丘-i.28703132.744115332,https://cf.shopee.tw/file/aa5fc54c1a8ed902108287cd807278f0_tn
IPhone11 Pro MAX i11卡通鏡頭貼 達菲熊 皮卡丘 史努比 蠟筆小新 小熊維尼 美人魚 鏡頭,88.0,海外,0,https://shopee.tw/IPhone11 Pro MAX i11卡通鏡頭貼 達菲熊 皮卡丘 史努比 蠟筆小新 小熊維尼 美人魚 鏡頭圈 鏡頭貼-i.205198790.5010947603,https://cf.shopee.tw/file/5e7d68093db32360591d85177b266c99_tn
（現貨）畢業季 開學季兒童閃電麥坤米奇蘇菲亞蜘蛛人彩虹小馬皮卡丘佩佩豬手提袋文具組獎勵品  生日禮物 聖誕節 ,35.0,高雄市苓雅區,171,https://shopee.tw/（現貨）畢業季 開學季兒童閃電麥坤米奇蘇菲亞蜘蛛人彩虹小馬皮卡丘佩佩豬手提袋文具組獎勵品  生日禮物 聖誕節 小一 新生-i.2853202.1736090933,https://cf.shopee.tw/file/9b1597fcc2d5a723fc840f7a2c0c048f_tn
皮卡丘 小黑方963/784/590/570/585限量版RD177 RD163 植村秀 無色限粉霧保濕/玩,730.0,桃園市桃園區,689,https://shopee.tw/皮卡丘 小黑方963/784/590/570/585限量版RD177 RD163 植村秀 無色限粉霧保濕/玩色水潤唇膏-i.591492.1772952499,https://cf.shopee.tw/file/a6a5c68ae873a879289540a14883f095_tn
東鳩蠟筆小新巧克力餅乾(巧克力口味、披薩口味                            ,50.0,彰化縣彰化市,903,https://shopee.tw/東鳩蠟筆小新巧克力餅乾(巧克力口味、披薩口味、皮卡丘）-i.68762856.1150473757,https://cf.shopee.tw/file/cf633d585d37b47d6a6670d4df1cf885_tn
【現貨】可愛毛絨公仔皮卡丘 airpods1/2代通用耳機保護套個性防摔創意立體套ins潮流蘋果無線藍牙耳機保,153.0,,14,https://shopee.tw/【現貨】可愛毛絨公仔皮卡丘 airpods1/2代通用耳機保護套個性防摔創意立體套ins潮流蘋果無線藍牙耳機保護套配掛鈎-i.165713934.2770348460,https://cf.shopee.tw/file/befaff8e880b0cdbfd8554f124236996_tn
迪士尼日本動漫卡通手提防水牛津便當袋 餐袋水壺袋  哆拉a夢 皮卡丘 蜘蛛人 角落生物 麥昆 補習 ,75.0,,527,https://shopee.tw/迪士尼日本動漫卡通手提防水牛津便當袋 餐袋水壺袋  哆拉a夢 皮卡丘 蜘蛛人 角落生物 麥昆 補習班 野餐袋-i.60409041.2249974096,https://cf.shopee.tw/file/4d8359024edb139b26a1776d3f192aa1_tn
🐩雪狗氣球🐩皮卡丘氣球Pokemon Go 精靈寶可夢 神奇寶貝 口袋妖怪             ,15.0,桃園市桃園區,826,https://shopee.tw/🐩雪狗氣球🐩皮卡丘氣球Pokemon Go 精靈寶可夢 神奇寶貝 口袋妖怪氣球精靈球-i.15573893.1036101373,https://cf.shopee.tw/file/999d8803b0b62eaae38cd3867fece520_tn
現貨 MUSE 自動給皂機 洗手機 補充罐 補充包 哆啦A夢 小小兵 皮卡丘 小叮         ,140.0,新竹縣竹東鎮,3448,https://shopee.tw/現貨 MUSE 自動給皂機 洗手機 補充罐 補充包 哆啦A夢 小小兵 皮卡丘 小叮噹 萬聖節-i.7849848.366542176,https://cf.shopee.tw/file/66f3ec7a9a7da82a0e80bab08a67ff36_tn
【T9store】日本進口 Pikachu (皮卡丘) 造                     ,349.0,新北市中和區,7,https://shopee.tw/【T9store】日本進口 Pikachu (皮卡丘) 造型兒童水壺-i.51924442.1615956327,https://cf.shopee.tw/file/b6a8aa8166af6cd2efdcc04c5eb85b09_tn
出清📣萬聖節 強勢登場 寶可夢  萬聖節吊飾 皮卡丘 6款 吊飾  六隻一套  萬聖節歡慶活    ,20.0,新北市中和區,348,https://shopee.tw/出清📣萬聖節 強勢登場 寶可夢  萬聖節吊飾 皮卡丘 6款 吊飾  六隻一套  萬聖節歡慶活動 寶可夢-i.47790117.1617239793,https://cf.shopee.tw/file/52e30907487bd662e4bb1287cfe692f0_tn
台灣現貨 當日出貨 神奇寶貝 精靈寶可夢 皮卡丘 cos 伊布 波加曼 木木梟 可達鴨 食玩 轉蛋 扭蛋 ,50.0,新北市永和區,339,https://shopee.tw/台灣現貨 當日出貨 神奇寶貝 精靈寶可夢 皮卡丘 cos 伊布 波加曼 木木梟 可達鴨 食玩 轉蛋 扭蛋 公仔 景品-i.11557133.2408605851,https://cf.shopee.tw/file/6fd22ed99314e004697d17fb1af9230d_tn
【現貨 買一送四】任天堂switch收納包 switch lite保護包 皮卡丘 伊布主題收納包 硬質E,359.0,海外,111,https://shopee.tw/【現貨 買一送四】任天堂switch收納包 switch lite保護包 皮卡丘 伊布主題收納包 硬質EVA保護包-i.87009316.2856510159,https://cf.shopee.tw/file/a58099f7aae7b6cc07c7a72f13bd2ffb_tn
【T9store】日本進口 Pikachu (皮卡丘) 掀蓋                    ,269.0,新北市中和區,28,https://shopee.tw/【T9store】日本進口 Pikachu (皮卡丘) 掀蓋式幼童水壺-i.51924442.2103178733,https://cf.shopee.tw/file/4932810641eeba1be781cff91a9a65db_tn
✨LGKAR✨（可放A4書本）日本卡通San-X角落生物後背包 寶可夢皮卡丘背包美樂蒂芝麻街耐臟防水背包雙,199.0,,566,https://shopee.tw/✨LGKAR✨（可放A4書本）日本卡通San-X角落生物後背包 寶可夢皮卡丘背包美樂蒂芝麻街耐臟防水背包雙肩背包禮物-i.137309297.2470838604,https://cf.shopee.tw/file/a3c695c017739d131ddbea3e22e603a3_tn
❤當日出貨❤猥瑣皮卡丘搞笑公仔 小火龍 傑尼龜 妙蛙種子寶可夢周邊 手辦玩偶模型人偶 桌面擺設擺飾禮品,99.0,,127,https://shopee.tw/❤當日出貨❤猥瑣皮卡丘搞笑公仔 小火龍 傑尼龜 妙蛙種子寶可夢周邊 手辦玩偶模型人偶 桌面擺設擺飾禮品 生日禮物-i.139381349.2610602287,https://cf.shopee.tw/file/ee03690e9755b67f5d95eb5a78008b8b_tn
卡通家居服 動物睡衣 連身睡衣 恐龍睡衣 法蘭絨睡衣 情侶裝 史迪奇 皮卡丘            ,80.0,,104,https://shopee.tw/卡通家居服 動物睡衣 連身睡衣 恐龍睡衣 法蘭絨睡衣 情侶裝 史迪奇 皮卡丘 親子裝套裝-i.134513233.2420479068,https://cf.shopee.tw/file/ac002794dac680e0117fdcb9a4e6381f_tn
跳樓拚ㄌ日本進口 神奇寶貝 皮卡丘 寶可夢 日本製 濕紙巾 盒 立體 頭型 大臉 內附  溼紙巾 面紙,220.0,台中市北區,76,https://shopee.tw/跳樓拚ㄌ日本進口 神奇寶貝 皮卡丘 寶可夢 日本製 濕紙巾 盒 立體 頭型 大臉 內附  溼紙巾 面紙 濕紙巾盒-i.11537339.182899017,https://cf.shopee.tw/file/7634508d02ab4b7ef0be045322b014e5_tn
升級版七色燈光跳舞鋼鐵人、大黄蜂、美國隊長、蜘蛛人、皮卡丘、吃雞隊長、冰雪公主、特技三輪網紅同款會跳舞的,119.0,,888,https://shopee.tw/升級版七色燈光跳舞鋼鐵人、大黄蜂、美國隊長、蜘蛛人、皮卡丘、吃雞隊長、冰雪公主、特技三輪網紅同款會跳舞的機器人小豬-i.156885894.2678991291,https://cf.shopee.tw/file/2e4528a86d4405efb19424bde763da46_tn
[Switch 主機收納包! 送鋼化膜+類比套] 寶可夢主題 主機 Ns 專            ,499.0,台南市歸仁區,264,https://shopee.tw/[Switch 主機收納包! 送鋼化膜+類比套] 寶可夢主題 主機 Ns 專用 皮卡丘-i.1010472.1764001551,https://cf.shopee.tw/file/66e3a9fa3c624c2e607768bbf595b883_tn
《Chara 微百貨》韓國 皮卡丘 吉拿棒 (巧克力)  多拉A夢 吉拿棒 ( 奶油 ) 12入/盒 PO,30.0,新北市新莊區,343,https://shopee.tw/《Chara 微百貨》韓國 皮卡丘 吉拿棒 (巧克力)  多拉A夢 吉拿棒 ( 奶油 ) 12入/盒 POKEMON-i.12518077.304036577,https://cf.shopee.tw/file/f8339165a2ea9b59abebf08971abbdb1_tn
✨限時下殺✨現貨✨爆款✨神奇寶貝皮卡丘手辦寵物小精靈潮牌公仔寶可夢口袋妖怪玩具小火龍傑尼龜妙蛙種  ,304.0,,7,https://shopee.tw/✨限時下殺✨現貨✨爆款✨神奇寶貝皮卡丘手辦寵物小精靈潮牌公仔寶可夢口袋妖怪玩具小火龍傑尼龜妙蛙種子動漫模型-i.180807060.3406308684,https://cf.shopee.tw/file/af0e72777ae5392b4fe64586963a45b4_tn
現貨 韓國限定 x 蠟筆小新  連帽U型枕 連帽頸枕 頸枕 連帽頸枕  皮卡丘 卡比獸 肥嘟嘟佐衛門 小白 動,230.0,海外,403,https://shopee.tw/現貨 韓國限定 x 蠟筆小新  連帽U型枕 連帽頸枕 頸枕 連帽頸枕  皮卡丘 卡比獸 肥嘟嘟佐衛門 小白 動感超人小新-i.26398347.2411086123,https://cf.shopee.tw/file/83efdb99970c4da3432f152dfbf79985_tn
@599運費30@899免運@Tomica Tomy 多美合金合金車 玩具車小汽車 pokemon寶可夢皮卡丘,105.0,,139,https://shopee.tw/@599運費30@899免運@Tomica Tomy 多美合金合金車 玩具車小汽車 pokemon寶可夢皮卡丘皮卡夢幻車-i.158732707.2648825028,https://cf.shopee.tw/file/1334227004805ab879c7576e8a6e2344_tn
[日本現貨] 台北善導寺可面交 Braun Oral-B 德國 百靈 歐樂B 皮卡丘 兒童電動牙刷 寶可,560.0,台北市中正區,91,https://shopee.tw/[日本現貨] 台北善導寺可面交 Braun Oral-B 德國 百靈 歐樂B 皮卡丘 兒童電動牙刷 寶可夢 充電式-i.16115600.6701148825,https://cf.shopee.tw/file/7d547825c019648c33c00c2557f282e3_tn
皮卡丘手機殼 HUAWEI NOVA3i NOVA3E NOVA3 NOVA2i Y9       ,165.0,,3,https://shopee.tw/皮卡丘手機殼 HUAWEI NOVA3i NOVA3E NOVA3 NOVA2i Y9 2019-i.172356678.2892711428,https://cf.shopee.tw/file/e0904a9797205395bf1090410f70a6db_tn
🔥皮卡丘/粉紅小巨炮藍芽喇叭🔥迷彩                                 ,115.0,彰化縣大村鄉,273,https://shopee.tw/🔥皮卡丘/粉紅小巨炮藍芽喇叭🔥迷彩巨砲請備註-i.19094763.2257891797,https://cf.shopee.tw/file/c89166c11c9758f26135c05daeadae76_tn
【娃娃市集】寶可夢娃娃 寶可夢抱枕 皮卡丘 卡比獸 快龍 傑尼龜 神奇寶貝娃娃 畢業禮物 可達鴨 精靈寶可夢,120.0,南投縣竹山鎮,1034,https://shopee.tw/【娃娃市集】寶可夢娃娃 寶可夢抱枕 皮卡丘 卡比獸 快龍 傑尼龜 神奇寶貝娃娃 畢業禮物 可達鴨 精靈寶可夢  呆呆獸-i.2799085.135378914,https://cf.shopee.tw/file/c6f8a1347229566542c928951fed7493_tn
🌈（現貨）正版莊臣寶可夢寵物小精靈 皮卡丘 噴火龍  兒童玩具變形                 ,225.0,台北市北投區,171,https://shopee.tw/🌈（現貨）正版莊臣寶可夢寵物小精靈 皮卡丘 噴火龍  兒童玩具變形蛋神奇寶貝-i.14460114.2500227102,https://cf.shopee.tw/file/ec50eeed484b38207ab01e6a58366b1a_tn
台灣現貨△▫℗秋季新款韓版潮流聯名情侶裝皮卡丘連帽加絨衛衣寬松男                  ,335.0,,10,https://shopee.tw/台灣現貨△▫℗秋季新款韓版潮流聯名情侶裝皮卡丘連帽加絨衛衣寬松男女學生長袖-i.168239167.3115337638,https://cf.shopee.tw/file/8335024f557c4e188ad7ce63c2383661_tn
最新♥️Baby Sheep 日本洗澡球 澡球 沐浴球 入浴劑 皮卡丘 精靈寶可夢 寶貝球 碳酸入浴劑 玩具 ,140.0,新竹市香山區,584,https://shopee.tw/最新♥️Baby Sheep 日本洗澡球 澡球 沐浴球 入浴劑 皮卡丘 精靈寶可夢 寶貝球 碳酸入浴劑 玩具 隨機 逆襲-i.2573321.1366455206,https://cf.shopee.tw/file/0e67ddef40d2f12e352129d7b16cac34_tn
現貨～新娘大推薦 皮卡丘/米奇/米妮/KT 小叮噹 糖果毛巾 婚禮小物 二進禮 桌上禮 小毛巾 小方巾 ,12.0,台北市士林區,4756,https://shopee.tw/現貨～新娘大推薦 皮卡丘/米奇/米妮/KT 小叮噹 糖果毛巾 婚禮小物 二進禮 桌上禮 小毛巾 小方巾 圖案隨機出-i.14012503.964581789,https://cf.shopee.tw/file/51d81c76018a4d9aaebd6ac7cc124a69_tn
【林豆桑】現貨✨韓國代購 護唇膏 碰碰狐/KITTY/公                      ,120.0,台北市信義區,83,https://shopee.tw/【林豆桑】現貨✨韓國代購 護唇膏 碰碰狐/KITTY/公主/皮卡丘-i.64625915.7403442257,https://cf.shopee.tw/file/5796cf192eab80ba9304d5232c38209d_tn
《免費刻字》客製化/北歐3D立體LED小夜燈/生日禮物/聖誕禮物/交換禮物/led燈飾/      ,100.0,新北市樹林區,1689,https://shopee.tw/《免費刻字》客製化/北歐3D立體LED小夜燈/生日禮物/聖誕禮物/交換禮物/led燈飾/浪漫燈飾/-i.17416920.173365186,https://cf.shopee.tw/file/ba9eeb65ffcfb6af6bcb63880d5260d7_tn
初音未來洛天依二次元女神周邊亞克力鑰匙動漫擺件細胞皮卡                       ,25.0,,87,https://shopee.tw/初音未來洛天依二次元女神周邊亞克力鑰匙動漫擺件細胞皮卡丘穹妹吊飾-i.173884462.3800227646,https://cf.shopee.tw/file/5f32ba10a8ddb9596fad3e82ea77f5a6_tn
🎉妍媽🎉現貨-  便當袋  補習袋 科任課袋 購物袋 角落生物 蜘蛛俠 Kitty 汪汪隊 皮卡丘 蘇菲公,75.0,新竹縣竹北市,174,https://shopee.tw/🎉妍媽🎉現貨-  便當袋  補習袋 科任課袋 購物袋 角落生物 蜘蛛俠 Kitty 汪汪隊 皮卡丘 蘇菲公主冰雪奇緣-i.11915188.2364661924,https://cf.shopee.tw/file/fa94d4e2b579cef5798c4fc21740cbc4_tn
史迪奇皮卡丘美樂蒂小叮噹KT蠟筆小新熊大八哥米妮LINE兔行動電源_娃娃機便宜行充_卡通行充_娃娃 ,100.0,新北市五股區,450,https://shopee.tw/史迪奇皮卡丘美樂蒂小叮噹KT蠟筆小新熊大八哥米妮LINE兔行動電源_娃娃機便宜行充_卡通行充_娃娃機3C批發-i.2158555.2285711957,https://cf.shopee.tw/file/3998770918d032fa3c023acc688e0a48_tn
香港代購adidas 愛迪達 NEO聯名 男女鞋Pokemon寶可夢皮卡丘傑尼龜運動板鞋EG2196 F,1799.0,,10,https://shopee.tw/香港代購adidas 愛迪達 NEO聯名 男女鞋Pokemon寶可夢皮卡丘傑尼龜運動板鞋EG2196 FW0085-i.139287842.5201594318,https://cf.shopee.tw/file/f164259d190f6424bf65133ec4378364_tn
🎉 兒童安全帽 特價♡ 史迪奇 Kitty 米奇 米妮 皮卡丘 冰雪奇緣 迪士尼公主 閃電麥坤 蛋黃哥 ,80.0,台南市東區,459,https://shopee.tw/🎉 兒童安全帽 特價♡ 史迪奇 Kitty 米奇 米妮 皮卡丘 冰雪奇緣 迪士尼公主 閃電麥坤 蛋黃哥 大童 小童-i.121795.2237135300,https://cf.shopee.tw/file/b3568de18a9e622a3779ff9aff08e27b_tn
【MamenVape】🔥正品 SALT LANGUAGE 鹽語 皮卡丘 定制款 公仔水杯套 水杯高3,270.0,桃園市大園區,433,https://shopee.tw/【MamenVape】🔥正品 SALT LANGUAGE 鹽語 皮卡丘 定制款 公仔水杯套 水杯高30/長40-i.172183389.2766616076,https://cf.shopee.tw/file/9ce10afcb27e6751173e793ec6ef35e8_tn
